%YAML 1.1
%TAG !u! tag:unity3d.com,2011:
--- !u!114 &11400000
MonoBehaviour:
  m_ObjectHideFlags: 0
  m_CorrespondingSourceObject: {fileID: 0}
  m_PrefabInstance: {fileID: 0}
  m_PrefabAsset: {fileID: 0}
  m_GameObject: {fileID: 0}
  m_Enabled: 1
  m_EditorHideFlags: 0
  m_Script: {fileID: 11500000, guid: b0fcf77a93925425ba0890ccdbfa4d66, type: 3}
  m_Name: AI_BURN
  m_EditorClassIdentifier: 
  fast: 1
  maxWalkSteps: 100
  rotateCountdown: 16
  Method: 0
  ChooseResult: 0
  activeTechnique:
    name: BURN
    heightThreshold: 0
    hole: 2
    low: 2
    rowOrder: 1
    colOrder: 1
    bust: 2
    fast: 0
  techniques: []
  data:
    id: 0
  highestCell: 0
  references:
    version: 1
    00000000:
      type: {class: , ns: , asm: }
